%YAML 1.1
%TAG !u! tag:unity3d.com,2011:
--- !u!78 &1
TagManager:
  serializedVersion: 2
  tags:
  - FlythroughCam
  layers:
  - Default
  - TransparentFX
  - Ignore Raycast
  - 
  - Water
  - UI
  - acid_tele
  - 
  - Skybox
  - Player
  - PostProcessing
  - SetDressing
  - 
  - 
  - Vehicles
  - Navmesh
  - Environment
  - Characters
  - Vegetation
  - Effects
  - Ragdoll
  - WaterGeometry
  - Terrain
  - Enemy
  - Cameras
  - Props
  - Avoid
  - CameraCollider
  - Collider
  - Checkpoint
  - DoNotDraw
  - Level
  m_SortingLayers:
  - name: Default
    uniqueID: 0
    locked: 0
